[
  {
    "image": "../images/ali-esm.jpg",
    "name": "علی اسماعیلی",
    "twitter": "realxoman",
    "jobTitle": "هم بنیانگذار بازیانا"
  },
  {
    "image": "../images/molaei-ali.jpg",
    "name": "علی مولایی",
    "twitter": "molaei_ali",
    "github": "molaeiali",
    "jobTitle": "برنامه‌نویس/فریلنسر"
  },
  {
    "image": "../images/sajjad_krb.jpg",
    "name": "سجاد کرباسی",
    "twitter": "sajjad_krb",
    "github": "s-emperatoor",
    "jobTitle": "برنامه نویس cpp و python"
  },
  {
    "image": "../images/frowzy.jpg",
    "name": "frowzy",
    "twitter": "frowzyispenguin",
    "gitlab": "frowzyispenguin",
    "jobTitle": "برنامه نویس Python"
  },
  {
    "image": "../images/sosha.jpg",
    "name": "سوشا مصلح",
    "twitter": "Soshaw96",
    "gitlab": "sosha",
    "jobTitle": "بلاگر"
  },
  {
    "image": "../images/danibehzi.jpg",
    "name": "دانیال بهزادی",
    "twitter": "danialbehzadi",
    "gitlab": "danialbehzadi",
    "jobTitle": "مدافع ادبیات گمانه‌زن و نرم‌افزار آزاد"
  },
  {
    "image": "../images/kfv.jpg",
    "name": "فرزاد وحیدی",
    "twitter": "kfvahedi",
    "github": "kfvahedi",
    "jobTitle": "UNIX System Engineer"
  },
  {
    "image": "../images/elibugy.jpg",
    "name": "الهام حصارکی",
    "twitter": " elibugy",
    "jobTitle": "هوش مصنوعی، داده‌کاوی و تحلیل شبکه‌های اجتماعی"
  },
  {
    "image": "../images/maleki.jpg",
    "name": "مریم ملکی",
    "jobTitle": "علاقه‌مند به طبیعت و صفرویک"
  }
]
